resultados.vcd
$date
	Sat Dec  9 21:30:47 2023
$end
$version
	Icarus Verilog
$end
$timescale
	1s
$end
$scope module testbench $end
$scope module WRAPPER $end
$var wire 8 ! TXD [7:0] $end
$var wire 1 " TX_EN $end
$var wire 1 # clock $end
$var wire 1 $ power $end
$var wire 1 % reset $end
$var wire 10 & rx_code_group [9:0] $end
$var wire 1 ' sync_status $end
$var wire 10 ( rx_code_group_out [9:0] $end
$var wire 10 ) TX_code_group [9:0] $end
$var wire 1 * RX_EVEN $end
$var wire 1 + RX_DV $end
$var wire 8 , RXD [7:0] $end
$scope module RECEPTOR $end
$var wire 1 # CLK $end
$var wire 1 % RESET $end
$var wire 1 ' sync_status $end
$var wire 10 - SUDI [9:0] $end
$var reg 8 . RXD [7:0] $end
$var reg 1 + RX_DV $end
$var reg 2 / contador [1:0] $end
$var reg 2 0 contador_proximo [1:0] $end
$var reg 6 1 estado [5:0] $end
$var reg 6 2 prox_estado [5:0] $end
$upscope $end
$scope module SINCRONIZADOR $end
$var wire 1 # clk $end
$var wire 1 % reset $end
$var wire 10 3 rx_code_group_in [9:0] $end
$var reg 1 * RX_EVEN $end
$var reg 4 4 current_state [3:0] $end
$var reg 4 5 next_state [3:0] $end
$var reg 10 6 rx_code_group_out [9:0] $end
$var reg 1 ' sync_status $end
$upscope $end
$scope module TRANSMISOR $end
$var wire 8 7 TXD [7:0] $end
$var wire 1 " TX_EN $end
$var wire 1 # clock $end
$var wire 1 $ power $end
$var wire 1 % reset $end
$var wire 8 8 tx_o_set [7:0] $end
$var wire 1 9 tx_even $end
$var wire 1 : transmitting $end
$var wire 10 ; TX_code_group [9:0] $end
$var wire 1 < TX_OSET_indicate $end
$scope module code $end
$var wire 8 = TXD [7:0] $end
$var wire 1 # clock $end
$var wire 1 $ power $end
$var wire 1 % reset $end
$var wire 8 > tx_o_set [7:0] $end
$var reg 1 < TX_OSET_indicate $end
$var reg 10 ? TX_code_group [9:0] $end
$var reg 10 @ next_TX_code_group [9:0] $end
$var reg 5 A next_state [4:0] $end
$var reg 1 B next_tx_even $end
$var reg 5 C state [4:0] $end
$var reg 1 D tx_disparity $end
$var reg 1 9 tx_even $end
$upscope $end
$scope module oset $end
$var wire 8 E TXD [7:0] $end
$var wire 1 " TX_EN $end
$var wire 1 < TX_OSET_indicate $end
$var wire 1 # clock $end
$var wire 1 $ power $end
$var wire 1 % reset $end
$var wire 1 9 tx_even $end
$var reg 6 F next_state [5:0] $end
$var reg 1 G next_transmitting $end
$var reg 8 H next_tx_o_set [7:0] $end
$var reg 6 I state [5:0] $end
$var reg 1 : transmitting $end
$var reg 8 J tx_o_set [7:0] $end
$upscope $end
$upscope $end
$upscope $end
$upscope $end
$enddefinitions $end
#0
$dumpvars
bx J
bx I
bx H
xG
b1 F
b0 E
xD
bx C
xB
bx A
bx @
bx ?
bx >
b0 =
x<
bx ;
x:
x9
bx 8
b0 7
bx 6
bx 5
bx 4
bx 3
bx 2
bx 1
bx 0
bx /
bx .
bx -
bx ,
x+
x*
bx )
bx (
x'
b0 &
0%
0$
0#
0"
b0 !
$end
#5
1#
#10
b10111100 H
b1 I
0#
#15
1#
#20
b0 0
0+
b1 2
b11111010 @
0G
b0 /
b1 1
b0 )
b0 3
b0 ;
b0 ?
b1 C
0:
b10111100 8
b10111100 >
b10111100 J
b1000 A
1B
b11000101 H
1D
09
0#
1$
1%
#25
b0 4
1#
#30
b1 5
b0 (
b0 -
b0 6
0*
0'
0B
b1010010110 @
b10111100 H
b10000 A
b11000101 8
b11000101 >
b11000101 J
19
b11111010 )
b11111010 3
b11111010 ;
b11111010 ?
b1000 C
0#
0%
#35
b1 4
1#
#40
b10 5
1*
b1100000101 @
1B
0D
b1000 A
b11000101 H
09
b1010010110 )
b1010010110 3
b1010010110 ;
b1010010110 ?
b10000 C
b10111100 8
b10111100 >
b10111100 J
0#
#45
b10 4
1#
#50
b11 5
0*
0B
b1010010110 @
b10111100 H
b10000 A
b11000101 8
b11000101 >
b11000101 J
19
b1100000101 )
b1100000101 3
b1100000101 ;
b1100000101 ?
b1000 C
0#
#55
b11 4
1#
#60
b100 5
1*
b11111010 @
1B
1D
b1000 A
b11000101 H
09
b1010010110 )
b1010010110 3
b1010010110 ;
b1010010110 ?
b10000 C
b10111100 8
b10111100 >
b10111100 J
0#
#65
b100 4
1#
#70
b101 5
0*
0B
b1010010110 @
b10111100 H
b10000 A
b11000101 8
b11000101 >
b11000101 J
19
b11111010 )
b11111010 3
b11111010 ;
b11111010 ?
b1000 C
0#
#75
b101 4
1#
#80
b110 5
1*
b1100000101 @
1B
0D
b1000 A
b11000101 H
09
b1010010110 )
b1010010110 3
b1010010110 ;
b1010010110 ?
b10000 C
b10111100 8
b10111100 >
b10111100 J
0#
#85
b110 4
1#
#90
b10 2
b1100000101 (
b1100000101 -
b1100000101 6
1'
0*
0B
b1010010110 @
b10111100 H
b10000 A
b11000101 8
b11000101 >
b11000101 J
19
b1100000101 )
b1100000101 3
b1100000101 ;
b1100000101 ?
b1000 C
0#
#95
b10 F
b11111011 H
1#
1"
#100
b100 2
b1010010110 (
b1010010110 -
b1010010110 6
1*
b1101101000 @
1B
b10 A
b100 F
b0 H
1G
b10 1
09
b1010010110 )
b1010010110 3
b1010010110 ;
b1010010110 ?
b10000 C
b11111011 8
b11111011 >
b11111011 J
b10 I
0#
#105
1#
#110
b1000 2
b111 5
b1101101000 (
b1101101000 -
b1101101000 6
0*
b1001110100 @
b1000 F
0B
b100 A
1:
b0 8
b0 >
b0 J
b100 I
19
b1101101000 )
b1101101000 3
b1101101000 ;
b1101101000 ?
b10 C
b100 1
0#
#115
b111 4
b1 H
b1000 F
1#
b1 !
b1 7
b1 =
b1 E
#120
b1001110100 (
b1001110100 -
b1001110100 6
1*
b111010100 @
b10000 2
b1010101 ,
b1010101 .
1+
1B
b1000 1
09
b1001110100 )
b1001110100 3
b1001110100 ;
b1001110100 ?
b100 C
b1 8
b1 >
b1 J
b1000 I
0#
#125
b10 H
1#
b10 !
b10 7
b10 =
b10 E
#130
b111010100 (
b111010100 -
b111010100 6
0*
b1011010100 @
0B
b1 ,
b1 .
1+
b10 8
b10 >
b10 J
19
b111010100 )
b111010100 3
b111010100 ;
b111010100 ?
b10000 1
0#
#135
b11 H
1#
b11 !
b11 7
b11 =
b11 E
#140
b10 ,
b10 .
1+
b1011010100 (
b1011010100 -
b1011010100 6
1*
b1100011011 @
1B
1D
09
b1011010100 )
b1011010100 3
b1011010100 ;
b1011010100 ?
b11 8
b11 >
b11 J
0#
#145
b100 H
1#
b100 !
b100 7
b100 =
b100 E
#150
b11 ,
b11 .
1+
b1100011011 (
b1100011011 -
b1100011011 6
0*
b10101011 @
0B
b100 8
b100 >
b100 J
19
b1100011011 )
b1100011011 3
b1100011011 ;
b1100011011 ?
0#
#155
b101 H
1#
b101 !
b101 7
b101 =
b101 E
#160
b100 ,
b100 .
1+
b10101011 (
b10101011 -
b10101011 6
1*
b1010010100 @
1B
0D
09
b10101011 )
b10101011 3
b10101011 ;
b10101011 ?
b101 8
b101 >
b101 J
0#
#165
b110 H
1#
b110 !
b110 7
b110 =
b110 E
#170
b101 ,
b101 .
1+
b1010010100 (
b1010010100 -
b1010010100 6
0*
b110011011 @
0B
1D
b110 8
b110 >
b110 J
19
b1010010100 )
b1010010100 3
b1010010100 ;
b1010010100 ?
0#
#175
b111 H
1#
b111 !
b111 7
b111 =
b111 E
#180
b110 ,
b110 .
1+
b110011011 (
b110011011 -
b110011011 6
1*
b1110100 @
1B
0D
09
b110011011 )
b110011011 3
b110011011 ;
b110011011 ?
b111 8
b111 >
b111 J
0#
#185
b1000 H
1#
b1000 !
b1000 7
b1000 =
b1000 E
#190
b111 ,
b111 .
1+
b1110100 (
b1110100 -
b1110100 6
0*
b1110010100 @
0B
b1000 8
b1000 >
b1000 J
19
b1110100 )
b1110100 3
b1110100 ;
b1110100 ?
0#
#195
b1001 H
1#
b1001 !
b1001 7
b1001 =
b1001 E
#200
b1000 ,
b1000 .
1+
b1110010100 (
b1110010100 -
b1110010100 6
1*
b1001011011 @
1B
1D
09
b1110010100 )
b1110010100 3
b1110010100 ;
b1110010100 ?
b1001 8
b1001 >
b1001 J
0#
#205
b0 H
1#
b0 !
b0 7
b0 =
b0 E
#210
b1001 ,
b1001 .
1+
b1001011011 (
b1001011011 -
b1001011011 6
0*
b110001011 @
0B
b0 8
b0 >
b0 J
19
b1001011011 )
b1001011011 3
b1001011011 ;
b1001011011 ?
0#
#215
1#
#220
b0 ,
b0 .
1+
b110001011 (
b110001011 -
b110001011 6
1*
1B
09
b110001011 )
b110001011 3
b110001011 ;
b110001011 ?
0#
#225
1#
#230
0B
19
0#
#235
1#
#240
1B
09
0#
#245
1#
#250
0B
19
0#
#255
1#
#260
1B
09
0#
#265
1#
#270
0B
19
0#
#275
1#
#280
b100010111 @
0G
1B
b10 A
09
b11111101 8
b11111101 >
b11111101 J
b10000 I
b11110111 H
b100000 F
0#
0"
#285
1#
#290
b0 5
0*
b1010111 @
b1 F
b10111100 H
0B
0:
b11110111 8
b11110111 >
b11110111 J
b100000 I
19
b100010111 )
b100010111 3
b100010111 ;
b100010111 ?
b10 C
0#
#295
b0 4
1#
#300
1+
b0 (
b0 -
b0 6
0'
b1100000101 @
1B
0D
b1000 A
b11000101 H
09
b1010111 )
b1010111 3
b1010111 ;
b1010111 ?
b10111100 8
b10111100 >
b10111100 J
b1 I
0#
#305
1#
#310
b1 5
0B
b1010010110 @
b10111100 H
b10000 A
0+
b1 2
b11000101 8
b11000101 >
b11000101 J
19
b1100000101 )
b1100000101 3
b1100000101 ;
b1100000101 ?
b1000 C
b1 1
0#
#315
b1 4
1#
#320
b10 5
1*
b11111010 @
1B
1D
b1000 A
b11000101 H
09
b1010010110 )
b1010010110 3
b1010010110 ;
b1010010110 ?
b10000 C
b10111100 8
b10111100 >
b10111100 J
0#
#325
b10 4
1#
#330
b11 5
0*
0B
b1010010110 @
b10111100 H
b10000 A
b11000101 8
b11000101 >
b11000101 J
19
b11111010 )
b11111010 3
b11111010 ;
b11111010 ?
b1000 C
0#
#335
b11 4
1#
#340
b100 5
1*
b1100000101 @
1B
0D
b1000 A
b11000101 H
09
b1010010110 )
b1010010110 3
b1010010110 ;
b1010010110 ?
b10000 C
b10111100 8
b10111100 >
b10111100 J
0#
#345
b100 4
1#
#350
b101 5
0*
0B
b1010010110 @
b10111100 H
b10000 A
b11000101 8
b11000101 >
b11000101 J
19
b1100000101 )
b1100000101 3
b1100000101 ;
b1100000101 ?
b1000 C
0#
#355
b101 4
1#
#360
b110 5
1*
b11111010 @
1B
1D
b1000 A
b11000101 H
09
b1010010110 )
b1010010110 3
b1010010110 ;
b1010010110 ?
b10000 C
b10111100 8
b10111100 >
b10111100 J
0#
#365
b110 4
1#
#370
b10 2
b11111010 (
b11111010 -
b11111010 6
1'
0*
0B
b1010010110 @
b10111100 H
b10000 A
b11000101 8
b11000101 >
b11000101 J
19
b11111010 )
b11111010 3
b11111010 ;
b11111010 ?
b1000 C
0#
#375
1#
#380
b100 2
b1010010110 (
b1010010110 -
b1010010110 6
1*
b1100000101 @
1B
0D
b1000 A
b11000101 H
b10 1
09
b1010010110 )
b1010010110 3
b1010010110 ;
b1010010110 ?
b10000 C
b10111100 8
b10111100 >
b10111100 J
0#
